%YAML 1.1
%TAG !u! tag:unity3d.com,2011:
--- !u!114 &11400000
MonoBehaviour:
  m_ObjectHideFlags: 0
  m_CorrespondingSourceObject: {fileID: 0}
  m_PrefabInstance: {fileID: 0}
  m_PrefabAsset: {fileID: 0}
  m_GameObject: {fileID: 0}
  m_Enabled: 1
  m_EditorHideFlags: 0
  m_Script: {fileID: 11500000, guid: 7e38d83fd0773d04d87c14454f0769b3, type: 3}
  m_Name: Captain Murphy - Between Friends
  m_EditorClassIdentifier: 
  aClip: {fileID: 8300000, guid: afd265ff6481c5144b16805c0b51b7de, type: 3}
  composer: Captain Murphy
  title: Between Friends
  rock: 0
  funk: 2
  jazz: 1
  techno: 0
  pop: 0
  hiphop: 9
  unlocked: 1
  goodTransSecs: 
