%YAML 1.1
%TAG !u! tag:unity3d.com,2011:
--- !u!114 &11400000
MonoBehaviour:
  m_ObjectHideFlags: 0
  m_CorrespondingSourceObject: {fileID: 0}
  m_PrefabInstance: {fileID: 0}
  m_PrefabAsset: {fileID: 0}
  m_GameObject: {fileID: 0}
  m_Enabled: 1
  m_EditorHideFlags: 0
  m_Script: {fileID: 11500000, guid: 7e38d83fd0773d04d87c14454f0769b3, type: 3}
  m_Name: KGLW - Shanghai
  m_EditorClassIdentifier: 
  aClip: {fileID: 8300000, guid: ce876f0668aad0b47b043e05c996ea55, type: 3}
  composer: KG&LW
  title: Shanghai
  rock: 0
  funk: 3
  jazz: 0
  techno: 0
  pop: 0
  hiphop: 7
  unlocked: 1
