%YAML 1.1
%TAG !u! tag:unity3d.com,2011:
--- !u!114 &11400000
MonoBehaviour:
  m_ObjectHideFlags: 0
  m_CorrespondingSourceObject: {fileID: 0}
  m_PrefabInstance: {fileID: 0}
  m_PrefabAsset: {fileID: 0}
  m_GameObject: {fileID: 0}
  m_Enabled: 1
  m_EditorHideFlags: 0
  m_Script: {fileID: 11500000, guid: 7e38d83fd0773d04d87c14454f0769b3, type: 3}
  m_Name: PPC - Digital Hunger
  m_EditorClassIdentifier: 
  aClip: {fileID: 8300000, guid: 644eb81f048244f458b4aad5fa9e724b, type: 3}
  composer: Psychedelic Porn Crumpets
  title: Digital Hunger
  rock: 5
  funk: 3
  jazz: 0
  techno: 5
  pop: 0
  hiphop: 0
  unlocked: 1
